<?xml version="1.0" encoding="utf-8"?>
<!-- Generator: Adobe Illustrator 16.0.0, SVG Export Plug-In . SVG Version: 6.00 Build 0)  -->
<!DOCTYPE svg PUBLIC "-//W3C//DTD SVG 1.1//EN" "http://www.w3.org/Graphics/SVG/1.1/DTD/svg11.dtd">
<svg version="1.1" id="Layer_1" xmlns="http://www.w3.org/2000/svg" xmlns:xlink="http://www.w3.org/1999/xlink" x="0px" y="0px"
	 width="346.114px" height="121.352px" viewBox="0 0 346.114 121.352" enable-background="new 0 0 346.114 121.352"
	 xml:space="preserve">
<g>
	<path fill="#010101" d="M62.219,76.817h-1.013c-0.202-1.422-0.915-2.131-2.233-2.131c-0.708,0-1.418,0.101-2.129,0.201
		l-2.637,0.508l-2.537,0.508l-2.738,0.506c-1.013,0.205-2.536,0.408-4.36,0.507c-2.232,0.204-3.955,0.204-5.275,0.204
		c-21.402,0-37.938-15.417-37.938-35.299c0-19.577,16.129-34.998,36.517-34.998c3.955,0,8.623,0.609,13.693,1.829
		c1.32,0.304,2.03,0.506,2.336,0.506c1.113,0.303,2.432,0.405,3.143,0.405c1.42,0,2.03-0.405,2.536-1.926h1.013l1.623,26.981h-1.013
		c-1.826-5.68-2.841-7.914-5.781-12.779c-5.58-9.131-11.564-13.696-18.056-13.696c-9.637,0-14.708,11.768-14.708,34.184
		c0,21.303,6.289,33.474,17.345,33.474c8.622,0,17.955-11.767,22.112-27.995h1.015L62.219,76.817z"/>
	<path fill="#010101" d="M133.118,75.801v-1.014c4.562-0.304,6.186-0.912,7.607-2.841c0.606-0.811,1.116-1.826,1.318-3.041
		c0.404-2.232,0.505-3.654,0.505-10.451V10.985l-26.777,68.164L88.991,12.505v34.59c0,10.243,1.116,16.535,3.753,21.202
		c0.914,1.521,2.03,2.839,3.348,3.854c2.028,1.521,3.855,2.129,8.013,2.637v1.014H71.952v-1.014c1.013-0.205,1.926-0.405,2.738-0.61
		c4.159-1.012,7.507-3.648,9.636-7.606c2.435-4.462,3.347-10.143,3.347-21.3V23.866c0-6.694-0.304-8.318-1.824-10.449
		c-1.828-2.637-5.174-3.854-11.565-4.259V8.144h34.388l16.736,42.704l16.94-42.704h29.621v1.015c-4.565,0.405-6.19,1.016-7.61,2.839
		c-0.708,0.814-1.114,1.925-1.319,3.044c-0.404,2.232-0.507,3.955-0.507,10.551v32.861c0,9.536,0.204,11.263,1.826,13.492
		c1.32,1.826,3.044,2.537,7.61,2.841v1.014H133.118z"/>
	<g>
		<path fill="#010101" d="M302.101,75.801v-1.014c4.869-0.205,7.202-2.028,7.202-5.681c0-2.637-1.319-7.403-4.159-13.998
			l-2.232-5.175h-20.488c-1.826,4.972-2.537,8.421-2.537,12.277c0,7.506,3.752,12.171,10.041,12.576v1.014h-31.341v-1.014
			c4.565-0.81,6.288-1.622,9.839-4.97c5.273-4.869,9.232-11.161,12.68-20.39l10.245-27.082c-1.218-2.332-2.131-3.447-3.956-5.274
			c4.058-2.131,5.274-2.944,9.735-7.103c3.045-2.736,4.464-4.257,7.509-7.91l0.811,2.434c1.318,3.854,2.942,7.504,4.463,11.26
			l13.084,31.545c1.828,4.361,5.68,12.982,8.217,18.055c3.35,6.897,6.188,9.13,11.869,9.434v1.014H302.101z M292.161,23.563
			l-9.433,25.157h19.779L292.161,23.563z"/>
	</g>
	<g>
		<path fill="#010101" d="M233.867,65.604c-2.462,0-5.268-0.753-7.592-2.052c-0.89-0.48-1.848-1.234-2.942-2.121
			c-1.504-1.23-2.258-1.984-4.036-3.9c-1.916,2.735-2.736,3.694-4.38,4.924c-2.598,1.987-6.226,3.148-9.646,3.148
			c-9.231,0-16.552-7.457-16.552-16.829c0-8.004,4.925-14.981,13.886-19.635c0.274-2.598,0.686-3.694,1.71-5.267
			c2.258-3.42,6.638-5.678,11.287-5.678c6.156,0,10.605,4.037,10.605,9.647c0,3.352-1.779,7.524-5.338,11.97l5.609,6.707
			l0.549-1.642l1.916-5.472c0.822-2.396,1.572-4.312,2.326-5.816c1.367-2.601,3.831-4.174,6.429-4.174
			c3.56,0,6.021,2.738,6.021,6.638c0,3.283-1.984,5.812-4.652,5.812c-1.505,0-2.599-0.613-4.24-2.326
			c-0.959-0.957-1.508-1.299-2.326-1.299c-1.573,0-2.602,1.573-5.336,8.892c4.787,6.09,10.33,9.921,14.299,9.921
			c1.709,0,3.146-0.751,4.172-2.118l0.617,0.203C242.624,61.979,238.314,65.604,233.867,65.604z M217.106,55.341
			c-1.161-1.233-2.669-3.009-4.446-5.335c-2.119-2.735-3.623-4.791-4.515-6.158c-1.438-2.049-2.668-4.105-3.626-6.224
			c-1.229-2.668-1.641-4.173-1.983-7.593c-0.616,0.613-1.095,1.024-1.299,1.367c-1.437,1.778-2.327,5.129-2.327,8.413
			c0,9.715,6.705,17.926,14.708,17.926c1.847,0,3.079-0.275,4.857-1.166C217.792,55.958,217.314,55.546,217.106,55.341z
			 M216.354,19.085c-2.188,0-3.694,1.707-3.694,4.102c0,1.778,0.549,3.694,1.986,6.706c0.888,1.778,1.708,3.352,2.599,4.791
			c1.162,1.843,1.708,2.666,3.215,4.513c1.506-2.601,2.188-5.202,2.188-8.759C222.648,23.599,220.187,19.085,216.354,19.085z"/>
	</g>
	<rect x="189.687" y="74.553" fill="#010101" width="55.896" height="1.248"/>
	<rect x="189.687" y="8.144" fill="#010101" width="55.896" height="1.247"/>
	<g>
		<path fill="#010101" d="M191.546,90.565h2.771c1.021,0,1.768,0.109,2.365,0.382c0.802,0.365,1.223,0.978,1.223,1.996
			c0,1.373-0.814,1.957-1.467,2.215c0.883,0.26,1.889,0.856,1.889,2.352c0,1.155-0.49,1.849-1.25,2.27
			c-0.748,0.393-1.631,0.503-2.678,0.503h-2.854V90.565z M192.689,94.791h1.766c1.427,0,2.16-0.421,2.16-1.657
			c0-0.748-0.299-1.128-0.788-1.345c-0.476-0.204-1.073-0.245-1.821-0.245h-1.316V94.791z M192.689,99.29h2.213
			c0.613,0,1.184-0.123,1.578-0.435c0.365-0.285,0.57-0.734,0.57-1.333c0-1.316-0.992-1.752-2.46-1.752h-1.901V99.29z"/>
		<path fill="#010101" d="M209.336,95.431c0,2.989-1.917,5.042-4.864,5.042c-2.922,0-4.879-2.053-4.879-5.042
			s1.97-5.055,4.864-5.055S209.336,92.427,209.336,95.431z M200.83,95.418c0,2.391,1.346,4.089,3.628,4.089
			c2.229,0,3.601-1.685,3.601-4.089c0-2.447-1.345-4.077-3.615-4.077C202.175,91.341,200.83,93.011,200.83,95.418z"/>
		<path fill="#010101" d="M220.332,95.431c0,2.989-1.916,5.042-4.865,5.042c-2.92,0-4.878-2.053-4.878-5.042s1.97-5.055,4.864-5.055
			S220.332,92.427,220.332,95.431z M211.826,95.418c0,2.391,1.346,4.089,3.627,4.089c2.229,0,3.602-1.685,3.602-4.089
			c0-2.447-1.345-4.077-3.615-4.077C213.171,91.341,211.826,93.011,211.826,95.418z"/>
		<path fill="#010101" d="M222.209,90.565h1.169v4.457c1.807-2.012,3.18-3.465,4.09-4.457h1.453l-4.293,4.471
			c1.398,1.698,2.977,3.52,4.402,5.246h-1.455c-0.869-0.992-2.295-2.678-4.197-5.002v5.002h-1.169V90.565z"/>
		<path fill="#010101" d="M230.161,90.565h1.169v4.457c1.807-2.012,3.18-3.465,4.09-4.457h1.453l-4.293,4.471
			c1.398,1.698,2.977,3.52,4.402,5.246h-1.454c-0.87-0.992-2.297-2.678-4.198-5.002v5.002h-1.169V90.565z"/>
		<path fill="#010101" d="M238.111,90.565h6.033v1.006h-4.877v3.22h4.552v1.007h-4.552v3.479h4.973v1.005h-6.129V90.565z"/>
		<path fill="#010101" d="M246.117,90.565h6.033v1.006h-4.879v3.22h4.553v1.007h-4.553v3.479h4.975v1.005h-6.129V90.565z"/>
		<path fill="#010101" d="M254.123,90.565h2.785c0.815,0,1.55,0.082,2.134,0.395c0.801,0.422,1.305,1.155,1.305,2.405
			c0,0.992-0.354,1.711-0.992,2.188c-0.612,0.476-1.468,0.667-2.514,0.667h-1.563v4.062h-1.154V90.565z M255.277,95.239h1.576
			c1.278,0,2.242-0.515,2.242-1.874c0-1.209-0.773-1.821-2.323-1.821h-1.495V95.239z"/>
		<path fill="#010101" d="M262.101,90.565h1.154v9.717h-1.154V90.565z"/>
		<path fill="#010101" d="M271.586,100.282l-3.234-5.815c-0.544-1.02-1.276-2.285-1.427-2.65h-0.027
			c0,0.528,0.014,2.826,0.014,3.681v4.785h-1.154v-9.717h1.752l3.303,5.993l1.332,2.459h0.026c0-0.544-0.04-1.901-0.04-2.84v-5.612
			h1.127v9.717H271.586z"/>
		<path fill="#010101" d="M284.417,95.28v5.002h-1.073v-0.761l0.014-0.816c-0.395,0.707-1.509,1.768-3.52,1.768
			c-2.705,0-4.702-1.958-4.702-5.042c0-2.907,1.901-5.055,4.878-5.055c2.46,0,3.859,1.345,4.403,3.084h-1.155
			c-0.476-1.019-1.236-2.107-3.262-2.107c-2.174,0-3.613,1.497-3.613,4.051c0,2.501,1.399,4.091,3.586,4.091
			c2.365,0,3.371-1.699,3.438-3.207h-3.859V95.28H284.417z"/>
		<path fill="#010101" d="M194.224,106.018h1.494l3.914,9.717h-1.223l-1.224-3.059h-4.566l-1.209,3.059h-1.142L194.224,106.018z
			 M194.917,106.915c-0.503,1.331-1.168,2.854-1.562,3.899l-0.381,0.925h3.846l-0.408-1.048c-0.476-1.25-0.991-2.472-1.468-3.776
			H194.917z"/>
		<path fill="#010101" d="M206.713,115.734l-3.233-5.816c-0.544-1.02-1.278-2.284-1.428-2.649h-0.027
			c0,0.528,0.015,2.826,0.015,3.681v4.785h-1.155v-9.717h1.752l3.303,5.992l1.332,2.459h0.027c0-0.543-0.041-1.9-0.041-2.839v-5.612
			h1.128v9.717H206.713z"/>
		<path fill="#010101" d="M210.887,106.018h2.474c1.346,0,2.146,0.19,2.895,0.529c1.589,0.748,2.473,2.216,2.473,4.35
			c0,1.59-0.543,2.947-1.644,3.817c-0.816,0.64-1.78,1.021-3.52,1.021h-2.678V106.018z M212.042,114.742h1.223
			c2.678,0,4.186-1.006,4.186-3.859c0-2.556-1.44-3.887-4.035-3.887c-0.477,0-0.925,0-1.373,0.014V114.742z"/>
		<path fill="#010101" d="M225.566,107.023h-2.719v-1.006h6.592v1.006h-2.717v8.711h-1.156V107.023z"/>
		<path fill="#010101" d="M232.906,106.018h1.494l3.914,9.717h-1.223l-1.224-3.059h-4.565l-1.209,3.059h-1.143L232.906,106.018z
			 M233.598,106.915c-0.503,1.331-1.169,2.854-1.562,3.899l-0.382,0.925h3.846l-0.407-1.048c-0.477-1.25-0.992-2.472-1.469-3.776
			H233.598z"/>
		<path fill="#010101" d="M238.343,115.734c1.127-1.536,2.229-3.166,3.479-4.974c-1.074-1.536-2.215-3.263-3.248-4.743h1.318
			l2.609,3.9c0.761-1.129,1.779-2.664,2.581-3.9h1.278c-1.033,1.469-2.025,2.908-3.207,4.633l3.546,5.084H245.3l-2.84-4.227
			c-1.713,2.581-2.311,3.384-2.854,4.227H238.343z"/>
		<path fill="#010101" d="M251.608,112.975c0.204,1.293,1.02,2.025,2.487,2.025c1.413,0,2.256-0.692,2.256-1.78
			c0-1.169-1.047-1.521-2.256-1.929l-0.585-0.191c-1.685-0.543-2.704-1.236-2.704-2.731c0-1.522,1.236-2.54,3.262-2.54
			c1.971,0,3.125,0.951,3.303,2.703h-1.129c-0.217-1.196-0.951-1.793-2.215-1.793s-2.024,0.571-2.024,1.508
			c0,1.032,0.788,1.428,2.079,1.861l0.666,0.232c1.59,0.502,2.812,1.127,2.812,2.73c0,1.807-1.413,2.854-3.492,2.854
			c-2.039,0-3.397-1.047-3.615-2.949H251.608z"/>
		<path fill="#010101" d="M259.41,106.018h6.033v1.006h-4.878v3.22h4.552v1.007h-4.552v3.479h4.973v1.006h-6.128V106.018z"/>
		<path fill="#010101" d="M267.416,106.018h2.758c0.979,0,1.861,0.068,2.527,0.544c0.748,0.476,1.115,1.235,1.115,2.215
			c0,1.686-1.182,2.486-2.474,2.703c0.761,1.306,1.78,2.936,2.581,4.255h-1.398l-2.392-4.092h-1.562v4.092h-1.155V106.018z
			 M268.571,110.691h1.589c0.748,0,1.318-0.135,1.713-0.407c0.448-0.312,0.693-0.761,0.693-1.454c0-0.802-0.312-1.291-0.897-1.562
			c-0.366-0.178-0.87-0.272-1.509-0.272h-1.589V110.691z"/>
		<path fill="#010101" d="M278.832,114.754c0.285-0.923,0.666-1.888,1.006-2.854l2.078-5.883h1.21l-3.587,9.717h-1.522
			c-0.979-2.5-2.922-8.045-3.52-9.717h1.265l2.078,5.965c0.326,0.966,0.639,1.739,0.965,2.771H278.832z"/>
		<path fill="#010101" d="M284.527,106.018h1.156v9.717h-1.156V106.018z"/>
		<path fill="#010101" d="M296.839,112.921c-0.693,1.849-2.229,3.003-4.471,3.003c-2.84,0-4.811-2.039-4.811-5.041
			c0-2.977,1.998-5.055,4.879-5.055c2.269,0,3.777,1.1,4.416,3.111h-1.182c-0.463-1.225-1.414-2.135-3.248-2.135
			c-2.283,0-3.615,1.673-3.615,4.064c0,2.378,1.332,4.076,3.629,4.076c1.807,0,2.703-0.938,3.207-2.024H296.839z"/>
		<path fill="#010101" d="M298.567,106.018h6.034v1.006h-4.879v3.22h4.553v1.007h-4.553v3.479h4.973v1.006h-6.128V106.018z"/>
		<path fill="#010101" d="M306.966,112.975c0.204,1.293,1.02,2.025,2.487,2.025c1.413,0,2.255-0.692,2.255-1.78
			c0-1.169-1.045-1.521-2.255-1.929l-0.584-0.191c-1.685-0.543-2.704-1.236-2.704-2.731c0-1.522,1.236-2.54,3.262-2.54
			c1.97,0,3.125,0.951,3.301,2.703h-1.127c-0.217-1.196-0.951-1.793-2.215-1.793s-2.025,0.571-2.025,1.508
			c0,1.032,0.788,1.428,2.08,1.861l0.665,0.232c1.589,0.502,2.813,1.127,2.813,2.73c0,1.807-1.414,2.854-3.492,2.854
			c-2.039,0-3.398-1.047-3.615-2.949H306.966z"/>
		<path fill="#010101" d="M318.234,106.018h1.155v9.717h-1.155V106.018z"/>
		<path fill="#010101" d="M327.72,115.734l-3.234-5.816c-0.543-1.02-1.277-2.284-1.427-2.649h-0.026
			c0,0.528,0.013,2.826,0.013,3.681v4.785h-1.155v-9.717h1.753l3.303,5.992l1.331,2.459h0.027c0-0.543-0.041-1.9-0.041-2.839v-5.612
			h1.129v9.717H327.72z"/>
		<path fill="#010101" d="M340.55,112.921c-0.693,1.849-2.229,3.003-4.471,3.003c-2.84,0-4.811-2.039-4.811-5.041
			c0-2.977,1.998-5.055,4.879-5.055c2.27,0,3.777,1.1,4.416,3.111h-1.183c-0.462-1.225-1.413-2.135-3.248-2.135
			c-2.282,0-3.614,1.673-3.614,4.064c0,2.378,1.332,4.076,3.629,4.076c1.807,0,2.703-0.938,3.207-2.024H340.55z"/>
		<path fill="#010101" d="M341.816,114.227h1.196v1.508h-1.196V114.227z"/>
	</g>
</g>
</svg>
